<?xml version="1.0" encoding="UTF-8" standalone="no"?>
<!-- Created with Inkscape (http://www.inkscape.org/) -->

<svg
   width="126.37008mm"
   height="126.37008mm"
   viewBox="0 0 126.37008 126.37008"
   version="1.1"
   id="svg5"
   xml:space="preserve"
   inkscape:version="1.2.2 (b0a8486541, 2022-12-01)"
   sodipodi:docname="avant2go_capacity.svg"
   xmlns:inkscape="http://www.inkscape.org/namespaces/inkscape"
   xmlns:sodipodi="http://sodipodi.sourceforge.net/DTD/sodipodi-0.dtd"
   xmlns="http://www.w3.org/2000/svg"
   xmlns:svg="http://www.w3.org/2000/svg"><sodipodi:namedview
     id="namedview7"
     pagecolor="#505050"
     bordercolor="#ffffff"
     borderopacity="1"
     inkscape:showpageshadow="0"
     inkscape:pageopacity="0"
     inkscape:pagecheckerboard="1"
     inkscape:deskcolor="#505050"
     inkscape:document-units="mm"
     showgrid="false"
     inkscape:zoom="0.75165247"
     inkscape:cx="13.304021"
     inkscape:cy="336.59172"
     inkscape:window-width="2560"
     inkscape:window-height="1367"
     inkscape:window-x="0"
     inkscape:window-y="0"
     inkscape:window-maximized="1"
     inkscape:current-layer="g186" /><defs
     id="defs2"><inkscape:path-effect
       effect="fillet_chamfer"
       id="path-effect244"
       is_visible="true"
       lpeversion="1"
       nodesatellites_param="F,0,0,1,0,1.0583333,0,1 @ F,0,0,1,0,1.0583333,0,1 @ F,0,0,1,0,1.0583333,0,1 @ F,0,0,1,0,1.0583333,0,1"
       unit="px"
       method="auto"
       mode="F"
       radius="4"
       chamfer_steps="1"
       flexible="false"
       use_knot_distance="true"
       apply_no_radius="true"
       apply_with_radius="true"
       only_selected="false"
       hide_knots="false" /><rect
       x="-320.41721"
       y="367.6637"
       width="1764.1049"
       height="478.86115"
       id="rect302" /></defs><g
     inkscape:label="Layer 1"
     inkscape:groupmode="layer"
     id="layer1"
     transform="translate(-34.4981,-50.76046)"><g
       id="g186"
       transform="matrix(0.71691806,0,0,0.71691806,27.77291,50.142457)"><rect
         style="fill:#1a68b3;fill-opacity:1;stroke-width:4.132;stop-color:#000000"
         id="rect791"
         width="126.37008"
         height="126.37008"
         x="34.4981"
         y="50.76046" /><g
         id="g119"
         transform="matrix(0.75791542,0,0,0.75791542,265.18275,-112.177)">
	<path
   id="XMLID_107_"
   class="st0"
   d="m -183.5,275.76374 c -17.3,-0.1 -31.7,12.2 -35,28.6 -0.9,-0.4 -1.8,-0.6 -2.9,-0.6 l -5.3,-0.1 c -4,0 -7.2,3.2 -7.3,7.2 0,3.2 2.1,5.9 4.9,6.9 -0.9,2.9 -2.5,5.6 -4.6,7.9 v 0 c -7.9,8.6 -21.3,9.1 -29.8,1.2 -4.1,-3.8 -6.6,-9 -6.8,-14.7 -0.2,-5.6 1.7,-11 5.6,-15.2 3.8,-4.1 9,-6.6 14.7,-6.8 5.6,-0.2 11,1.7 15.2,5.6 2.9,2.7 7.5,2.5 10.2,-0.4 2.7,-2.9 2.5,-7.5 -0.4,-10.2 -7,-6.4 -16.1,-9.8 -25.5,-9.4 -9.5,0.4 -18.3,4.5 -24.7,11.4 -6.4,7 -9.8,16.1 -9.4,25.5 0.4,9.5 4.5,18.3 11.4,24.7 6.8,6.2 15.4,9.3 23.9,9.4 9.6,0 19.3,-3.8 26.3,-11.5 2.8,-3 5,-6.5 6.6,-10.2 5.4,12.7 17.9,21.6 32.6,21.7 19.6,0.1 35.6,-15.8 35.7,-35.4 0.1,-19.5 -15.7,-35.5 -35.4,-35.6 m -0.2,56.6 c -11.6,0 -21.1,-9.6 -21,-21.2 0,-11.6 9.6,-21.1 21.2,-21 11.6,0 21.1,9.6 21,21.2 0,11.7 -9.6,21.1 -21.2,21" />
	<path
   id="XMLID_106_"
   class="st0"
   d="m -290.9,318.1 c -3.9,0 -7,3.1 -7,7 0,3.9 3.1,7 7,7 3.9,0 7,-3.1 7,-7 0,-3.8 -3.1,-7 -7,-7" />
</g></g><rect
       style="fill:#ffffff;fill-rule:evenodd;stroke-width:0.567651;-inkscape-stroke:none;stop-color:#000000"
       id="rect242"
       width="113.68357"
       height="45.515625"
       x="40.744804"
       y="50.633694"
       inkscape:path-effect="#path-effect244"
       d="M 41.803138,50.633694 H 153.37004 a 1.0583333,1.0583333 45 0 1 1.05834,1.058333 v 43.398958 a 1.0583333,1.0583333 135 0 1 -1.05834,1.058334 H 41.803138 A 1.0583333,1.0583333 45 0 1 40.744804,95.090985 V 51.692027 a 1.0583333,1.0583333 135 0 1 1.058334,-1.058333 z" /></g><style
     type="text/css"
     id="style115">
	.st0{fill:#F4F4F4;}
</style></svg>
