<?xml version="1.0" encoding="UTF-8" standalone="no"?>
<svg
   viewBox="0 0 511.99899 511.99899"
   version="1.1"
   id="svg5735"
   sodipodi:docname="zapeljime.svg"
   width="511.99899"
   height="511.99899"
   inkscape:version="1.2.2 (b0a8486541, 2022-12-01)"
   xml:space="preserve"
   xmlns:inkscape="http://www.inkscape.org/namespaces/inkscape"
   xmlns:sodipodi="http://sodipodi.sourceforge.net/DTD/sodipodi-0.dtd"
   xmlns="http://www.w3.org/2000/svg"
   xmlns:svg="http://www.w3.org/2000/svg"><defs
     id="defs5739" /><sodipodi:namedview
     id="namedview5737"
     pagecolor="#505050"
     bordercolor="#ffffff"
     borderopacity="1"
     inkscape:showpageshadow="0"
     inkscape:pageopacity="0"
     inkscape:pagecheckerboard="1"
     inkscape:deskcolor="#505050"
     showgrid="false"
     inkscape:zoom="0.19029048"
     inkscape:cx="-1676.3845"
     inkscape:cy="-236.48057"
     inkscape:window-width="2048"
     inkscape:window-height="1079"
     inkscape:window-x="0"
     inkscape:window-y="0"
     inkscape:window-maximized="1"
     inkscape:current-layer="svg5735"
     inkscape:lockguides="true"
     showguides="true" /><rect
     style="fill:#6cb7ea;fill-opacity:1;stroke-width:1.333;stop-color:#000000"
     id="rect340"
     width="511.99899"
     height="511.99899"
     x="0"
     y="0" /><circle
     style="fill:none;stroke:#fec92f;stroke-width:33.44949656;stroke-linecap:round;stroke-linejoin:round;stroke-dasharray:none;stop-color:#000000;stroke-opacity:1"
     id="path372"
     cx="136.72885"
     cy="305.98718"
     r="70.983986" /><circle
     style="fill:none;stroke:#fec92f;stroke-width:33.44949656;stroke-linecap:round;stroke-linejoin:round;stroke-dasharray:none;stop-color:#000000;stroke-opacity:1"
     id="circle928"
     cx="366.44922"
     cy="305.98718"
     r="70.983986" /><path
     style="font-variation-settings:normal;opacity:1;fill:none;fill-opacity:1;stroke:#fec92f;stroke-width:36.64711465;stroke-linecap:round;stroke-linejoin:miter;stroke-miterlimit:4;stroke-dasharray:none;stroke-dashoffset:0;stroke-opacity:1;stop-color:#000000;stop-opacity:1"
     d="M 148.09523,157.02785 H 354.48465"
     id="path1045" /><path
     style="font-variation-settings:normal;opacity:1;fill:none;fill-opacity:1;stroke:#fec92f;stroke-width:36.64711465;stroke-linecap:round;stroke-linejoin:miter;stroke-miterlimit:4;stroke-dasharray:none;stroke-dashoffset:0;stroke-opacity:1;stop-color:#000000;stop-opacity:1"
     d="M 136.65062,308.36624 246.28319,168.47222"
     id="path1047" /><path
     style="font-variation-settings:normal;opacity:1;fill:#9f2725;fill-opacity:1;stroke:#fec92f;stroke-width:36.64711465;stroke-linecap:round;stroke-linejoin:miter;stroke-miterlimit:4;stroke-dasharray:none;stroke-dashoffset:0;stroke-opacity:1;stop-color:#000000;stop-opacity:1"
     d="M 369.51862,308.36624 259.88605,168.47222"
     id="path1051" /></svg>
